3.3 数据转换 (Data Transformation) | R与tidyverse——数据分析入门
…
3.3 数据转换 (Data Transformation)

数据转换，简而言之，就是对原有数据的展示形式做一些改动，因而把最有意义的数值以易读的形式展示出来，或是为绘图做准备。

3.3.1 取子集（抓取行，列）

本小节介绍了如何使用dplyr 包提供的select(), filter(), slice取子集方法
更详细的解释请看第3.4.1.2节。

这一小节我们使用名为iris的数据。它是一个dataframe，所以首先把它转换成tibble.

iris <- as_tibble(datasets::iris)
iris

#> # A tibble: 150 x 5
#>    Sepal.Length Sepal.Width Petal.Length Petal.Width Species
#>           <dbl>       <dbl>        <dbl>       <dbl> <fct>  
#>  1          5.1         3.5          1.4         0.2 setosa 
#>  2          4.9         3            1.4         0.2 setosa 
#>  3          4.7         3.2          1.3         0.2 setosa 
#>  4          4.6         3.1          1.5         0.2 setosa 
#>  5          5           3.6          1.4         0.2 setosa 
#>  6          5.4         3.9          1.7         0.4 setosa 
#>  7          4.6         3.4          1.4         0.3 setosa 
#>  8          5           3.4          1.5         0.2 setosa 
#>  9          4.4         2.9          1.4         0.2 setosa 
#> 10          4.9         3.1          1.5         0.1 setosa 
#> # … with 140 more rows
…
iris_3 <- select(iris, Species, starts_with("Sepal"))
head(iris_3, 3)

#> # A tibble: 3 x 3
#>   Species Sepal.Length Sepal.Width
#>   <fct>          <dbl>       <dbl>
#> 1 setosa           5.1         3.5
#> 2 setosa           4.9         3  
#> 3 setosa           4.7         3.2

iris_4 <- select(iris, contains("al.Le"))
iris_4

#> # A tibble: 150 x 2
#>    Sepal.Length Petal.Length
#>           <dbl>        <dbl>
#>  1          5.1          1.4
#>  2          4.9          1.4
#>  3          4.7          1.3
#>  4          4.6          1.5
#>  5          5            1.4
#>  6          5.4          1.7
#>  7          4.6          1.4
#>  8          5            1.5
#>  9          4.4          1.4
#> 10          4.9          1.5
#> # … with 140 more rows
…
3.3.2 使用arrange()排序tibble

有时候，你需要把表格展示（打印）出来，为了方便阅读，经常需要重新排列每行的顺序。

把iris根据萼片长度Sepal.Length从小到大的顺序排列：

arrange(iris, Sepal.Length)

#> # A tibble: 150 x 5
#>    Sepal.Length Sepal.Width Petal.Length Petal.Width Species
#>           <dbl>       <dbl>        <dbl>       <dbl> <fct>  
#>  1          4.3         3            1.1         0.1 setosa 
#>  2          4.4         2.9          1.4         0.2 setosa 
#>  3          4.4         3            1.3         0.2 setosa 
#>  4          4.4         3.2          1.3         0.2 setosa 
#>  5          4.5         2.3          1.3         0.3 setosa 
#>  6          4.6         3.1          1.5         0.2 setosa 
#>  7          4.6         3.4          1.4         0.3 setosa 
#>  8          4.6         3.6          1           0.2 setosa 
#>  9          4.6         3.2          1.4         0.2 setosa 
#> 10          4.7         3.2          1.3         0.2 setosa 
#> # … with 140 more rows

根据Sepal.Length从大到小的顺序排列：

arrange(iris, -Sepal.Length) # 或`arrange(iris, desc(Sepal.Length))`

#> # A tibble: 150 x 5
#>    Sepal.Length Sepal.Width Petal.Length Petal.Width Species  
#>           <dbl>       <dbl>        <dbl>       <dbl> <fct>    
#>  1          7.9         3.8          6.4         2   virginica
#>  2          7.7         3.8          6.7         2.2 virginica
#>  3          7.7         2.6          6.9         2.3 virginica
#>  4          7.7         2.8          6.7         2   virginica
#>  5          7.7         3            6.1         2.3 virginica
#>  6          7.6         3            6.6         2.1 virginica
#>  7          7.4         2.8          6.1         1.9 virginica
#>  8          7.3         2.9          6.3         1.8 virginica
#>  9          7.2         3.6          6.1         2.5 virginica
#> 10          7.2         3.2          6           1.8 virginica
#> # … with 140 more rows

根据Petal.Width从小到大的顺序排列，若有并列，再根据Petal.Length从大到小的顺序排列：

arrange(iris, Petal.Width, -Petal.Length)

#> # A tibble: 150 x 5
#>    Sepal.Length Sepal.Width Petal.Length Petal.Width Species
#>           <dbl>       <dbl>        <dbl>       <dbl> <fct>  
#>  1          4.9         3.1          1.5         0.1 setosa 
#>  2          5.2         4.1          1.5         0.1 setosa 
#>  3          4.8         3            1.4         0.1 setosa 
#>  4          4.9         3.6          1.4         0.1 setosa 
#>  5          4.3         3            1.1         0.1 setosa 
#>  6          4.8         3.4          1.9         0.2 setosa 
#>  7          5.4         3.4          1.7         0.2 setosa 
#>  8          4.8         3.4          1.6         0.2 setosa 
#>  9          5           3            1.6         0.2 setosa 
#> 10          4.7         3.2          1.6         0.2 setosa 
#> # … with 140 more rows
…
#> # A tibble: 3 x 3
#>   height weight body_mass_index
#>    <dbl>  <dbl>           <dbl>
#> 1   1.47   52.2            24.0
#> 2   1.50   53.1            23.6
#> 3   1.52   54.4            23.4

3.3.5 %>%符号 (Pipe Operator)

通过上面学习的方法，我们来初步处理一个叫做Aids2的数据；首先，把它做成tibble并重命名为更简洁的aids

aids <- as_tibble(MASS::Aids2)
aids

#> # A tibble: 2,843 x 7
#>    state sex    diag death status T.categ   age
#>    <fct> <fct> <int> <int> <fct>  <fct>   <int>
#>  1 NSW   M     10905 11081 D      hs         35
#>  2 NSW   M     11029 11096 D      hs         53
#>  3 NSW   M      9551  9983 D      hs         42
#>  4 NSW   M      9577  9654 D      haem       44
#>  5 NSW   M     10015 10290 D      hs         39
#>  6 NSW   M      9971 10344 D      hs         36
#>  7 NSW   M     10746 11135 D      other      36
#>  8 NSW   M     10042 11069 D      hs         31
#>  9 NSW   M     10464 10956 D      hs         26
#> 10 NSW   M     10439 10873 D      hsid       27
#> # … with 2,833 more rows

你要如何知道，各个变量代表什么意思？假设我们只想知道这些艾滋病人从被确诊到死亡的时间，而对其他的变量都不感兴趣，我们要去如何裁剪和转换这个tibble？

问题看起来很简单，你也许不假思索地就这么做了：

aids1 <- select(aids, diag, death)
aids2 <- mutate(aids1, span = death-diag)
aids2

#> # A tibble: 2,843 x 3
#>     diag death  span
#>    <int> <int> <int>
#>  1 10905 11081   176
#>  2 11029 11096    67
#>  3  9551  9983   432
#>  4  9577  9654    77
#>  5 10015 10290   275
#>  6  9971 10344   373
#>  7 10746 11135   389
#>  8 10042 11069  1027
#>  9 10464 10956   492
#> 10 10439 10873   434
#> # … with 2,833 more rows

错！

切记，不要自作主张地推测变量的含义！一定要看作者的说明（帮助文档）！对于这个数据，在R中使用?Aids2便可以查看帮助文档，但如果数据来源于其他地方，帮助文档放置的位置多种多样（虽然一般都作为README文件与数据共同打包下载），这时需要随机应变。

即使你猜对了diag和death是两个日期，你万万不会想到death并不一定是死亡日期。实际上，它是“死亡日期”或“观察结束日期”，而status变量指示的是观察结束时患者的生/死("A"/"D"). 所以我们实际上应该这么做：

aids1 <- filter(aids, status == "D") # 只关注在观察期间死亡的病人
aids2 <- select(aids1, diag, death) # 只关注确诊时间和死亡时间
aids_span1 <- mutate(aids2, span = death-diag) # 计算时间间隔
aids_span1

#> # A tibble: 1,761 x 3
#>     diag death  span
#>    <int> <int> <int>
#>  1 10905 11081   176
#>  2 11029 11096    67
#>  3  9551  9983   432
#>  4  9577  9654    77
#>  5 10015 10290   275
#>  6  9971 10344   373
#>  7 10746 11135   389
#>  8 10042 11069  1027
#>  9 10464 10956   492
#> 10 10439 10873   434
#> # … with 1,751 more rows
…
#> [1] TRUE

清清楚楚，一目了然。第一行是操作的对象 (aids)，下面每一行是一次操作，与逻辑顺序一致，而且不需要每进行一次操作就赋值/重新引用新的数据，每个函数的第一个参数（dataframe/tibble名称）被省略了。事实上，%>%符号做的事情，本质上就是把它左边的运算结果作为右边函数的第一个参数，然后再根据使用者提供的其它参数计算右边的函数。

%>%的名称是“pipe operator”，和赋值符号“<-”一样有快捷键，默认是Ctrl(command)+shift+M，不过可以在Tools > Modify Keyboard Shortcut中自定义（在它的面板中搜索pipe operator ），我喜欢设置成Alt(option)+.。

3.3.6 group_by与summarise

这是两个经常被放在一起使用的，实用且强大的函数。这次我们用到的数据是datasets::warpbreaks.

wb <- as_tibble(datasets::warpbreaks)
wb

#> # A tibble: 54 x 3
#>    breaks wool  tension
#>     <dbl> <fct> <fct>  
#>  1     26 A     L      
#>  2     30 A     L      
#>  3     54 A     L      
#>  4     25 A     L      
#>  5     70 A     L      
#>  6     52 A     L      
#>  7     51 A     L      
#>  8     26 A     L      
#>  9     67 A     L      
#> 10     18 A     M      
#> # … with 44 more rows
…
再用ggplot2中的mpg举一个例子：

mpg

#> # A tibble: 234 x 11
#>    manufacturer model displ  year   cyl trans drv     cty   hwy fl    class
#>    <chr>        <chr> <dbl> <int> <int> <chr> <chr> <int> <int> <chr> <chr>
#>  1 audi         a4      1.8  1999     4 auto… f        18    29 p     comp…
#>  2 audi         a4      1.8  1999     4 manu… f        21    29 p     comp…
#>  3 audi         a4      2    2008     4 manu… f        20    31 p     comp…
#>  4 audi         a4      2    2008     4 auto… f        21    30 p     comp…
#>  5 audi         a4      2.8  1999     6 auto… f        16    26 p     comp…
#>  6 audi         a4      2.8  1999     6 manu… f        18    26 p     comp…
#>  7 audi         a4      3.1  2008     6 auto… f        18    27 p     comp…
#>  8 audi         a4 q…   1.8  1999     4 manu… 4        18    26 p     comp…
#>  9 audi         a4 q…   1.8  1999     4 auto… 4        16    25 p     comp…
#> 10 audi         a4 q…   2    2008     4 manu… 4        20    28 p     comp…
#> # … with 224 more rows
…
