Chapter 6 dataframe（数据框）和tibble | R与tidyverse——数据分析入门
…
如果使用单方括号，得到的是一个tibble（试试mpg[3]）这个特性在第6.3.1.3节中有解释。

6.2.2.2 抓取多列

有时候，一个tibble中含有很多冗余信息，我们可能想把感兴趣的几个变量抓出来做一个新tibble. 这时select()函数最为方便。可以用变量名称或者索引来抓取。比如：

mpg_new <- select(mpg, 3:5, 8, 9)
#等同于
mpg_new <- select(mpg, displ, year, cyl, cty, hwy)

mpg_new

## # A tibble: 234 x 5
##    displ  year   cyl   cty   hwy
##    <dbl> <int> <int> <int> <int>
##  1   1.8  1999     4    18    29
##  2   1.8  1999     4    21    29
##  3   2    2008     4    20    31
##  4   2    2008     4    21    30
##  5   2.8  1999     6    16    26
##  6   2.8  1999     6    18    26
##  7   3.1  2008     6    18    27
##  8   1.8  1999     4    18    26
##  9   1.8  1999     4    16    25
## 10   2    2008     4    20    28
## # … with 224 more rows
…
