3.2 tibble的创建和基础操作 | R与tidyverse——数据分析入门
…
一般我们抓取单列是为了在tibble中新建一个与那一列相关的变量，或是建一个新tibble，或是做统计学分析。以上三种情况（是绝大多数的情况）用vector进行操作很方便。

假设你在写一个复杂的函数，且需要保持数据的完整性和一致性，可以使用单方括号[；这样得到的是一个tibble（试试mpg[3]）这个特性在第3.3.1.2节中有解释。

3.2.2.2 抓取多列并返回一个tibble

有时候，一个tibble中含有很多冗余信息，我们可能想把感兴趣的几个变量抓出来做一个新tibble. 这时select()函数最为方便。可以用变量名称或者索引来抓取。比如：

mpg_new <- select(mpg, 3:5, 8, 9)
#等同于
mpg_new <- select(mpg, displ, year, cyl, cty, hwy)

mpg_new

## # A tibble: 234 x 5
##    displ  year   cyl   cty   hwy
##    <dbl> <int> <int> <int> <int>
##  1   1.8  1999     4    18    29
##  2   1.8  1999     4    21    29
##  3   2    2008     4    20    31
##  4   2    2008     4    21    30
##  5   2.8  1999     6    16    26
##  6   2.8  1999     6    18    26
##  7   3.1  2008     6    18    27
##  8   1.8  1999     4    18    26
##  9   1.8  1999     4    16    25
## 10   2    2008     4    20    28
## # … with 224 more rows
…
